<?xml version="1.0" encoding="UTF-8" standalone="no"?>
<!-- Created with Inkscape (http://www.inkscape.org/) -->

<svg
   xmlns:dc="http://purl.org/dc/elements/1.1/"
   xmlns:cc="http://creativecommons.org/ns#"
   xmlns:rdf="http://www.w3.org/1999/02/22-rdf-syntax-ns#"
   xmlns:svg="http://www.w3.org/2000/svg"
   xmlns="http://www.w3.org/2000/svg"
   xmlns:xlink="http://www.w3.org/1999/xlink"
   xmlns:sodipodi="http://sodipodi.sourceforge.net/DTD/sodipodi-0.dtd"
   xmlns:inkscape="http://www.inkscape.org/namespaces/inkscape"
   width="210mm"
   height="297mm"
   id="svg2"
   version="1.1"
   inkscape:version="0.48.2 r9819"
   sodipodi:docname="PersonnagesSilhouetteSocialPrivacy.svg">
  <defs
     id="defs4">
    <linearGradient
       id="linearGradient4059">
      <stop
         style="stop-color:#0000ff;stop-opacity:1;"
         offset="0"
         id="stop4061" />
      <stop
         id="stop4067"
         offset="0.80000001"
         style="stop-color:#0000ff;stop-opacity:0.49803922;" />
      <stop
         style="stop-color:#0000ff;stop-opacity:0;"
         offset="1"
         id="stop4063" />
    </linearGradient>
    <radialGradient
       inkscape:collect="always"
       xlink:href="#linearGradient4059"
       id="radialGradient4065"
       cx="344.46786"
       cy="587.81842"
       fx="344.46786"
       fy="587.81842"
       r="270.92133"
       gradientTransform="matrix(1,0,0,1.6038782,0,-354.97074)"
       gradientUnits="userSpaceOnUse" />
  </defs>
  <sodipodi:namedview
     id="base"
     pagecolor="#ffffff"
     bordercolor="#666666"
     borderopacity="1.0"
     inkscape:pageopacity="0.0"
     inkscape:pageshadow="2"
     inkscape:zoom="1.0824912"
     inkscape:cx="229.33118"
     inkscape:cy="474.9865"
     inkscape:document-units="px"
     inkscape:current-layer="g4211"
     showgrid="false"
     inkscape:window-width="1440"
     inkscape:window-height="852"
     inkscape:window-x="24"
     inkscape:window-y="22"
     inkscape:window-maximized="0"
     showguides="false"
     inkscape:guide-bbox="true">
    <sodipodi:guide
       orientation="0,1"
       position="314.91773,630.58616"
       id="guide3841" />
    <sodipodi:guide
       orientation="0,1"
       position="341.19216,529.24196"
       id="guide3900" />
  </sodipodi:namedview>
  <metadata
     id="metadata7">
    <rdf:RDF>
      <cc:Work
         rdf:about="">
        <dc:format>image/svg+xml</dc:format>
        <dc:type
           rdf:resource="http://purl.org/dc/dcmitype/StillImage" />
        <dc:title></dc:title>
      </cc:Work>
    </rdf:RDF>
  </metadata>
  <g
     inkscape:groupmode="layer"
     id="layer6"
     inkscape:label="fond">
    <path
       sodipodi:type="arc"
       style="fill:url(#radialGradient4065);fill-rule:evenodd;stroke:none;stroke-width:1px;stroke-linecap:butt;stroke-linejoin:miter;stroke-opacity:1;fill-opacity:1"
       id="path4039"
       sodipodi:cx="344.46786"
       sodipodi:cy="587.81842"
       sodipodi:rx="270.92133"
       sodipodi:ry="434.52481"
       d="m 615.38919,587.81842 a 270.92133,434.52481 0 1 1 -541.842651,0 270.92133,434.52481 0 1 1 541.842651,0 z"
       transform="translate(-22.514239,0)" />
  </g>
  <g
     style="display:inline"
     inkscape:label="arriere Bras"
     id="g4179"
     inkscape:groupmode="layer">
    <g
       id="g4211"
       inkscape:transform-center-x="-85.912944"
       inkscape:transform-center-y="-48.961137"
       transform="matrix(-1,0,0,1,571.31435,0)">
      <path
         style="fill:none;stroke:#333333;stroke-width:35;stroke-linecap:round;stroke-linejoin:round;stroke-miterlimit:4;stroke-opacity:1;stroke-dasharray:none;display:inline"
         d="m 274.34077,451.66114 -98.22231,6.32757 -32.89905,-88.98515"
         id="path4181"
         inkscape:connector-curvature="0"
         sodipodi:nodetypes="ccc" />
      <path
         style="fill:#e9c6af;fill-opacity:1;stroke:#000000;stroke-width:0.801606px;stroke-linecap:butt;stroke-linejoin:miter;stroke-opacity:1;display:inline"
         d="m 162.39509,371.74725 -3.65156,-18.44238 -8.78666,-22.17697 -8.62988,3.59053 7.40305,16.37831 -25.43302,-24.98034 -15.24852,14.56378 29.21293,46.05321 z"
         id="path4183"
         inkscape:connector-curvature="0"
         sodipodi:nodetypes="ccccccccc" />
      <path
         style="fill:#ffffff;fill-opacity:1;stroke:#000000;stroke-width:1.1890254;stroke-linecap:square;stroke-linejoin:miter;stroke-miterlimit:4;stroke-opacity:1;stroke-dashoffset:0;display:inline"
         d="m 128.66248,391.75652 c 2.39468,8.98868 45.3562,-9.60018 40.1085,-15.88323 -5.24771,-6.28304 -7.71759,-18.78046 -7.71759,-18.78046 l -35.98164,14.13977 c 0,0 1.19607,11.53524 3.59073,20.52392 z"
         id="path4185"
         inkscape:connector-curvature="0"
         sodipodi:nodetypes="zzccz" />
    </g>
  </g>
  <g
     inkscape:label="Visage"
     inkscape:groupmode="layer"
     id="layer1"
     style="display:inline">
    <g
       id="g4030">
      <path
         sodipodi:nodetypes="ssssssss"
         inkscape:connector-curvature="0"
         id="path2985"
         d="m 339.91153,376.7209 c 0.78941,2.01849 -12.47938,-1.59138 -11.52906,2.69176 4.07444,18.36384 -3.76005,40.27807 -23.74673,43.91841 -1.99657,0.36366 -22.43077,3.5627 -26.48551,0 -1.94125,-1.70568 4.08593,-8.74748 0.85604,-12.3951 -7.26917,-8.20933 -11.52305,-19.23193 -11.52305,-31.21228 0,-27.61424 16.96985,-50 37.90322,-50 20.93338,0 24.46725,21.27978 34.52509,46.99721 z"
         style="fill:#e9c6af;stroke:#000000;stroke-width:1px;stroke-linecap:butt;stroke-linejoin:miter;stroke-opacity:1;display:inline;fill-opacity:1" />
      <path
         transform="matrix(1.6090526,0,0,0.76954689,-183.33927,85.839063)"
         sodipodi:open="true"
         sodipodi:end="5.91949"
         sodipodi:start="0"
         d="m 307.0354,360.03113 a 2.064419,4.3165126 0 1 1 -0.13504,-1.53552"
         sodipodi:ry="4.3165126"
         sodipodi:rx="2.064419"
         sodipodi:cy="360.03113"
         sodipodi:cx="304.97098"
         id="path3781"
         style="fill:#000000;fill-opacity:1;fill-rule:evenodd;stroke:#000000;stroke-width:1px;stroke-linecap:butt;stroke-linejoin:miter;stroke-opacity:1;display:inline"
         sodipodi:type="arc" />
      <path
         transform="matrix(1.6090526,0,0,0.76954689,-171.70346,86.214403)"
         sodipodi:open="true"
         sodipodi:end="5.91949"
         sodipodi:start="0"
         d="m 307.0354,360.03113 a 2.064419,4.3165126 0 1 1 -0.13504,-1.53552"
         sodipodi:ry="4.3165126"
         sodipodi:rx="2.064419"
         sodipodi:cy="360.03113"
         sodipodi:cx="304.97098"
         id="path3781-8"
         style="fill:#000000;fill-opacity:1;fill-rule:evenodd;stroke:#000000;stroke-width:1px;stroke-linecap:butt;stroke-linejoin:miter;stroke-opacity:1;display:inline"
         sodipodi:type="arc" />
      <path
         sodipodi:nodetypes="cscccccsc"
         inkscape:connector-curvature="0"
         id="path3802"
         d="m 270.96622,360.27245 c 0,0 8.25768,-2.25209 7.88233,4.87954 -0.37535,7.13163 -0.37535,11.63582 -0.37535,11.63582 l 3.37814,-0.37535 4.12884,-29.65257 23.27163,4.50419 16.8907,-7.88233 c 0,0 -3.37814,-13.51256 -18.76745,-13.88791 -15.3893,-0.37535 -35.28279,13.88791 -36.40884,30.77861 z"
         style="fill:#000000;fill-opacity:1;stroke:#000000;stroke-width:1px;stroke-linecap:butt;stroke-linejoin:miter;stroke-opacity:1;display:inline" />
    </g>
  </g>
  <g
     inkscape:groupmode="layer"
     id="layer3"
     inkscape:label="Cheveux" />
  <g
     inkscape:groupmode="layer"
     id="layer5"
     inkscape:label="Jambes">
    <path
       style="font-size:medium;font-style:normal;font-variant:normal;font-weight:normal;font-stretch:normal;text-indent:0;text-align:start;text-decoration:none;line-height:normal;letter-spacing:normal;word-spacing:normal;text-transform:none;direction:ltr;block-progression:tb;writing-mode:lr-tb;text-anchor:start;baseline-shift:baseline;color:#000000;fill:#333333;fill-opacity:1;stroke:none;stroke-width:50;marker:none;visibility:visible;display:inline;overflow:visible;enable-background:accumulate;font-family:Sans;-inkscape-font-specification:Sans"
       d="m 305.41854,572.92595 c -6.96055,-0.11078 -17.91525,2.84381 -22.66768,7.93066 -4.75242,5.08686 -7.22797,12.22612 -6.64482,19.16309 l 41.03125,115.9375 -28.5,121.9375 c -0.70762,6.5368 1.29327,13.32535 5.43314,18.43338 4.13987,5.10803 6.36683,8.4715 12.90845,9.13306 6.54163,0.66156 9.31592,-1.38709 14.39466,-5.56283 5.07875,-4.17575 8.39828,-10.42624 9.01375,-16.97236 l 34.86217,-116.63619 c 2.91913,-6.98356 -0.76601,-23.25733 0.99079,-16.31775 L 333.98104,596.55095 c -0.3435,-6.24 -3.12836,-12.31349 -7.6325,-16.64572 -4.50415,-4.33223 -14.68137,-6.87875 -20.93,-6.97928 z"
       id="path3976-9"
       inkscape:connector-curvature="0"
       sodipodi:nodetypes="cscccsssccccsc" />
    <path
       style="fill:#333333;fill-opacity:0.99230766;stroke:#000000;stroke-width:0.72740412px;stroke-linecap:butt;stroke-linejoin:miter;stroke-opacity:1;display:inline"
       d="m 334.65112,829.0967 c 0,0 9.50939,22.69981 17.23353,25.67211 7.72414,2.97229 12.57642,6.74131 18.32585,6.4548 5.74944,-0.28651 9.06245,5.79724 9.05964,9.50133 -8.21421,5.50713 -47.21418,0.41655 -69.88135,-20.34488 -1.68818,2.49064 -3.37066,6.28822 -3.37066,6.28822 l -22.64507,-7.87361 4.38539,-13.35031 2.22696,1.16655 c 0.0427,-9.97164 5.9637,-12.45323 10.64503,-16.5144 10.98192,4.9584 20.33241,18.83358 34.02068,9.00019 z"
       id="path4152-0"
       inkscape:connector-curvature="0"
       sodipodi:nodetypes="csscccccccc" />
    <path
       style="font-size:medium;font-style:normal;font-variant:normal;font-weight:normal;font-stretch:normal;text-indent:0;text-align:start;text-decoration:none;line-height:normal;letter-spacing:normal;word-spacing:normal;text-transform:none;direction:ltr;block-progression:tb;writing-mode:lr-tb;text-anchor:start;baseline-shift:baseline;color:#000000;fill:#000000;fill-opacity:1;stroke:none;stroke-width:50;marker:none;visibility:visible;display:inline;overflow:visible;enable-background:accumulate;font-family:Sans;-inkscape-font-specification:Sans"
       d="m 294.03125,558.5625 c -6.96055,-0.11078 -17.91525,2.84381 -22.66768,7.93066 -4.75242,5.08686 -7.22797,12.22612 -6.64482,19.16309 l 13.03125,129.9375 -8.5,123.9375 c -0.70762,6.5368 1.29327,13.32535 5.43314,18.43338 4.13987,5.10803 6.36683,8.4715 12.90845,9.13306 6.54163,0.66156 9.31592,-1.38709 14.39466,-5.56283 C 307.065,857.35911 310.38453,851.10862 311,844.5625 L 327.71875,718.5 c 0.14135,-1.41147 0.16228,-2.83498 0.0625,-4.25 l -5.1875,-132.0625 c -0.3435,-6.24 -3.12836,-12.31349 -7.6325,-16.64572 -4.50415,-4.33223 -14.68137,-6.87875 -20.93,-6.97928 z"
       id="path3976"
       inkscape:connector-curvature="0"
       sodipodi:nodetypes="cscccsssccccsc" />
  </g>
  <g
     inkscape:groupmode="layer"
     id="layer2"
     inkscape:label="corps"
     style="display:inline">
    <path
       style="fill:#202020;fill-opacity:1;stroke:#000000;stroke-width:0.94294107;stroke-linecap:round;stroke-linejoin:round;stroke-miterlimit:4;stroke-opacity:1;stroke-dashoffset:0"
       d="m 286.44861,417.40068 c -21.65681,1.28077 -26.1571,13.61616 -29.91059,31.78733 -3.75349,18.17117 -2.94229,32.61694 -0.31485,69.93221 2.62745,37.31527 -3.43864,69.13057 -3.43864,69.13057 0,15.32281 12.33569,18.65013 27.6585,18.65013 l 32.16638,0 c 15.32281,0 29.1599,-2.95197 29.1599,-18.27478 0,0 -12.38652,-38.94693 -7.88233,-69.50592 4.50419,-30.55899 1.26372,-43.84007 -3.48986,-64.87817 -4.75359,-21.03809 -22.2917,-38.12214 -43.94851,-36.84137 z"
       id="rect3880"
       inkscape:connector-curvature="0"
       sodipodi:nodetypes="zzzsssszzz" />
    <path
       style="fill:#f9f9f9;stroke:#000000;stroke-width:1px;stroke-linecap:butt;stroke-linejoin:miter;stroke-opacity:1"
       d="m 276.47397,419.17082 c 20.94536,1.50554 33.94532,14.00663 41.89073,22.72598 0.21548,-3.06894 -0.93719,-9.23492 -2.23243,-13.28431 -7.56142,-5.88713 -18.4686,-14.81484 -39.6583,-9.44167 z"
       id="path3982"
       inkscape:connector-curvature="0"
       sodipodi:nodetypes="cccc" />
    <path
       style="fill:#000000;fill-opacity:0.99230766;stroke:#000000;stroke-width:0.72740412px;stroke-linecap:butt;stroke-linejoin:miter;stroke-opacity:1"
       d="m 307.46215,843.85519 c 0,0 16.11861,18.5984 24.38456,19.0117 8.26596,0.4133 14.05214,2.47978 19.425,0.4133 5.37287,-2.06649 10.41904,2.67949 11.57234,6.19946 -6.0853,7.79557 -44.72611,15.13034 -72.74042,2.47979 -0.82658,2.89309 -1.23989,7.02607 -1.23989,7.02607 l -23.97127,-0.4133 0,-14.05213 2.47979,0.4133 c -3.07138,-9.48694 1.77945,-13.69242 4.95957,-19.0117 11.98085,1.28352 25.1945,11.54762 35.13032,-2.06649 z"
       id="path4152"
       inkscape:connector-curvature="0"
       sodipodi:nodetypes="csscccccccc" />
  </g>
  <g
     inkscape:groupmode="layer"
     id="layer4"
     inkscape:label="Bras"
     style="display:inline">
    <path
       style="fill:none;stroke:#000000;stroke-width:35;stroke-linecap:round;stroke-linejoin:round;stroke-miterlimit:4;stroke-opacity:1;stroke-dasharray:none"
       d="m 282.8749,447.80333 47.43329,86.24235 92.7271,-20.05964"
       id="path3980"
       inkscape:connector-curvature="0"
       sodipodi:nodetypes="ccc" />
    <path
       style="fill:#e9c6af;fill-opacity:1;stroke:#000000;stroke-width:0.801606px;stroke-linecap:butt;stroke-linejoin:miter;stroke-opacity:1;display:inline"
       d="m 410.41904,499.28691 17.51651,-6.8284 23.42519,-4.50375 1.60809,9.20765 -17.79113,2.55538 34.7329,8.03004 -4.09112,20.68535 -54.53698,0.10334 z"
       id="path4036"
       inkscape:connector-curvature="0"
       sodipodi:nodetypes="ccccccccc" />
    <path
       style="fill:#ffffff;fill-opacity:1;stroke:#000000;stroke-width:1.1890254;stroke-linecap:square;stroke-linejoin:miter;stroke-miterlimit:4;stroke-opacity:1;stroke-dashoffset:0;display:inline"
       d="m 411.66568,538.48774 c -8.8678,2.80946 -16.27069,-43.41213 -8.15209,-42.36168 8.11859,1.05046 19.98614,-3.58065 19.98614,-3.58065 l 7.4054,37.94433 c 0,0 -10.37167,5.18853 -19.23945,7.998 z"
       id="rect3932"
       inkscape:connector-curvature="0"
       sodipodi:nodetypes="zzccz" />
  </g>
</svg>
